<svg width="24" height="24" viewBox="0 0 24 24" fill="none" xmlns="http://www.w3.org/2000/svg">
    <mask id="mask044" mask-type="alpha" maskUnits="userSpaceOnUse" x="0" y="0" width="24" height="24">
        <path fill-rule="evenodd" clip-rule="evenodd" d="M0 0H23.1204V23.1204H0V0Z" fill="white"/>
    </mask>
    <g mask="url(#mask044)">
        <path fill-rule="evenodd" clip-rule="evenodd" d="M0 17.073V6.04837C0 2.72216 2.72137 0 6.04758 0H17.073C20.3992 0 23.1206 2.72216 23.1206 6.04837V17.073C23.1206 20.3992 20.3992 23.1206 17.073 23.1206H6.04758C2.72137 23.1206 0 20.3992 0 17.073Z" fill="#666666"/>
    </g>
    <path fill-rule="evenodd" clip-rule="evenodd" d="M7.83143 5.8335C8.54695 5.8335 9.12807 6.41461 9.12807 7.12856C9.12807 7.84408 8.54695 8.42599 7.83143 8.42599C7.11353 8.42599 6.5332 7.84408 6.5332 7.12856C6.5332 6.41461 7.11353 5.8335 7.83143 5.8335ZM6.71114 16.6001H8.95022V9.40772H6.71114V16.6001Z" fill="white"/>
    <path fill-rule="evenodd" clip-rule="evenodd" d="M10.3535 9.40739H12.4985V10.3909H12.5278C12.8266 9.82484 13.5556 9.22949 14.6443 9.22949C16.9079 9.22949 17.3246 10.7183 17.3246 12.6545V16.5998H15.091V13.1028C15.091 12.2679 15.0752 11.1958 13.9288 11.1958C12.7657 11.1958 12.5879 12.1042 12.5879 13.0419V16.5998H10.3535V9.40739Z" fill="white"/>
</svg>
